{
  "data": [
    {
      "id": 1,
      "name": "FC Barcelona vs Real Madrid",
      "starting_at": "2024-10-26 20:00:00"
    }
  ],
  "pagination": {
    "count": 2,
    "per_page": 1,
    "current_page": 1,
    "next_page": "2",
    "has_more": true
  }
}
